<?xml version="1.0" encoding="UTF-8" standalone="no"?>
<!-- Created with Inkscape (http://www.inkscape.org/) -->

<svg
   xmlns:dc="http://purl.org/dc/elements/1.1/"
   xmlns:cc="http://creativecommons.org/ns#"
   xmlns:rdf="http://www.w3.org/1999/02/22-rdf-syntax-ns#"
   xmlns:svg="http://www.w3.org/2000/svg"
   xmlns="http://www.w3.org/2000/svg"
   xmlns:xlink="http://www.w3.org/1999/xlink"
   xmlns:sodipodi="http://sodipodi.sourceforge.net/DTD/sodipodi-0.dtd"
   xmlns:inkscape="http://www.inkscape.org/namespaces/inkscape"
   id="svg2"
   version="1.1"
   inkscape:version="0.92.2 2405546, 2018-03-11"
   width="2481"
   height="3503"
   sodipodi:docname="E26P04.svg">
  <metadata
     id="metadata8">
    <rdf:RDF>
      <cc:Work
         rdf:about="">
        <dc:format>image/svg+xml</dc:format>
        <dc:type
           rdf:resource="http://purl.org/dc/dcmitype/StillImage" />
        <dc:title />
      </cc:Work>
    </rdf:RDF>
  </metadata>
  <defs
     id="defs6" />
  <sodipodi:namedview
     pagecolor="#ffffff"
     bordercolor="#666666"
     borderopacity="1"
     objecttolerance="10"
     gridtolerance="10"
     guidetolerance="10"
     inkscape:pageopacity="0"
     inkscape:pageshadow="2"
     inkscape:window-width="1920"
     inkscape:window-height="1033"
     id="namedview4"
     showgrid="false"
     inkscape:zoom="0.42773946"
     inkscape:cx="1324.4367"
     inkscape:cy="2572.1597"
     inkscape:window-x="0"
     inkscape:window-y="47"
     inkscape:window-maximized="0"
     inkscape:current-layer="layer3" />
  <g
     inkscape:groupmode="layer"
     id="layer2"
     inkscape:label="artwork"
     sodipodi:insensitive="true">
    <image
       sodipodi:absref="/home/midgard/git/peppercarrot/comics/ep26_Books-Are-Great/lang/ja/../gfx_Pepper-and-Carrot_by-David-Revoy_E26P04.png"
       xlink:href="../gfx_Pepper-and-Carrot_by-David-Revoy_E26P04.png"
       width="2481"
       height="3503"
       id="image10"
       x="0"
       y="0" />
  </g>
  <g
     inkscape:groupmode="layer"
     id="layer3"
     inkscape:label="speechbubbles">
    <path
       style="color:#000000;display:inline;overflow:visible;visibility:visible;fill:#ffffff;fill-opacity:1;fill-rule:nonzero;stroke:none;stroke-width:1.94898558px;marker:none;enable-background:accumulate"
       d="m 77.400688,1506.9232 c -4.62607,-67.4656 -3.186926,-126.5765 4.515032,-182.4591 4.783193,-34.7051 155.20171,-43.6215 207.01701,-36.6628 101.4853,13.6293 187.43339,99.5722 181.28548,186.7271 -3.33828,47.3246 -10.14935,109.9562 -50.60924,149.8168 -20.67765,20.3713 -133.97916,32.6947 -182.38747,35.7285 -49.91349,3.132 -119.43271,0.576 -144.038866,-31.0665 -24.945846,-32.079 -11.156005,-54.6183 -15.781946,-122.084 z"
       id="path3373"
       inkscape:connector-curvature="0"
       sodipodi:nodetypes="zssssssz" />
    <path
       style="color:#000000;display:inline;overflow:visible;visibility:visible;fill:#ffffff;fill-opacity:1;fill-rule:nonzero;stroke:none;stroke-width:0.95470774;marker:none;enable-background:accumulate"
       d="M 334.72334,815.68832 C 270.69021,768.20289 160.79897,542.47645 212.0307,346.43052 c 17.37837,-51.8683 57.92729,-277.917223 -11.27572,-59.22132 -69.203,218.6959 11.68172,439.21665 133.96836,528.47912 z"
       id="path3010"
       inkscape:connector-curvature="0"
       sodipodi:nodetypes="cczc" />
    <path
       style="color:#000000;display:inline;overflow:visible;visibility:visible;fill:#ffffff;fill-opacity:1;fill-rule:nonzero;stroke:none;stroke-width:0.92846394px;marker:none;enable-background:accumulate"
       d="m 935.76006,1017.8265 c 22.47857,-11.219 27.79905,-26.61133 25.55111,-33.02225 -2.24784,-6.41084 -22.47847,-39.26666 -47.20477,-43.27347 -24.72641,-4.00682 -104.57075,-8.81495 -119.1818,-4.80813 -14.6111,4.00673 -56.19637,30.45171 -56.19637,44.07478 0,13.62316 7.86752,40.06807 30.34602,48.08167 22.47851,8.0136 139.71167,0.7406 166.68581,-11.0526 z"
       id="path3349"
       inkscape:connector-curvature="0"
       sodipodi:nodetypes="ccscssc" />
    <path
       style="color:#000000;display:inline;overflow:visible;visibility:visible;fill:#ffffff;fill-opacity:1;fill-rule:nonzero;stroke:none;stroke-width:0.62015647px;marker:none;enable-background:accumulate"
       d="m 821.36825,1036.9564 c 13.26044,-18.6906 125.19372,-38.97813 164.53424,-0.4606 39.34051,38.5175 13.51311,93.0526 -9.05937,107.7592 -22.57241,14.7066 -85.77765,18.373 -117.34619,9.8942 -41.87496,-11.2468 -53.92234,-31.4487 -55.4637,-70.0319 -0.62907,-15.7471 4.07452,-28.4701 17.33502,-47.1609 z"
       id="path4040"
       inkscape:connector-curvature="0"
       sodipodi:nodetypes="zssssz" />
    <path
       style="color:#000000;display:inline;overflow:visible;visibility:visible;fill:#ffffff;fill-opacity:1;fill-rule:nonzero;stroke:none;stroke-width:0.9220413px;marker:none;enable-background:accumulate"
       d="m 1559.8471,1184.577 c -4.0527,-31.4449 6.7544,-114.9705 89.8353,-108.0919 83.0807,6.8785 96.5897,46.1846 98.6161,57.9765 2.0264,11.7918 19.5882,78.6124 -45.2553,96.3003 -64.8437,17.6877 -122.9325,-0.9828 -143.1961,-46.1849 z"
       id="path3525"
       inkscape:connector-curvature="0" />
    <path
       style="color:#000000;display:inline;overflow:visible;visibility:visible;fill:#ffffff;fill-opacity:1;fill-rule:nonzero;stroke:none;stroke-width:1px;marker:none;enable-background:accumulate"
       d="m 938.35118,1086.2126 c 69.98612,31.0197 98.42482,29.5718 151.73632,-4.4587 -31.1182,24.6589 -43.6342,55.9553 -145.08715,33.1222 -40.4073,-9.0941 -6.64917,-28.6635 -6.64917,-28.6635 z"
       id="path4480"
       inkscape:connector-curvature="0"
       sodipodi:nodetypes="ccsc" />
    <path
       style="color:#000000;display:inline;overflow:visible;visibility:visible;fill:#ffffff;fill-opacity:1;fill-rule:nonzero;stroke:none;stroke-width:1px;marker:none;enable-background:accumulate"
       d="m 1496.1025,1128.3709 c 34.6297,22.4436 48.151,28.3727 87.526,0.3521 39.375,-28.0207 48.7701,-12.382 48.7701,-12.382 l -12.8989,31.2148 c 0,0 -87.8568,53.5997 -123.3972,-19.1849 z"
       id="path3072"
       inkscape:connector-curvature="0" />
    <path
       style="color:#000000;display:inline;overflow:visible;visibility:visible;fill:#ffffff;fill-opacity:1;fill-rule:nonzero;stroke:none;stroke-width:0.74193799px;marker:none;enable-background:accumulate"
       d="m 1960.9312,186.4288 c -0.4786,-19.20925 3.8174,-26.39203 23.9167,-38.93681 20.0995,-12.54478 39.1663,-6.41212 57.3401,-3.85385 20.8963,2.94151 43.1681,7.50842 50.3465,21.62136 7.1784,14.11286 12.921,19.60121 10.5282,32.93007 -2.3928,13.32878 -4.7855,27.44172 -13.3996,32.14599 -8.614,4.70434 -69.8694,10.97669 -79.919,7.84051 -10.0498,-3.13617 -26.3207,-3.92026 -34.9347,-13.32886 -8.7329,-9.53839 -13.3997,-19.20917 -13.8782,-38.41841 z"
       id="path3373-0"
       inkscape:connector-curvature="0"
       sodipodi:nodetypes="zsssssssz" />
    <path
       style="color:#000000;display:inline;overflow:visible;visibility:visible;fill:#ffffff;fill-opacity:1;fill-rule:nonzero;stroke:none;stroke-width:1.05252004px;marker:none;enable-background:accumulate"
       d="m 1893.5238,275.99898 c 2.6846,-45.42743 36.6881,-55.43685 72.4814,-57.74673 35.7933,-2.30988 50.1107,4.61975 59.9539,6.1596 9.8431,1.53995 102.0109,-4.61974 114.5385,-3.07979 12.5277,1.53994 71.5867,22.32874 68.9021,58.51664 -2.6844,36.18791 -42.9519,51.58702 -84.1143,53.89689 -41.1623,2.30988 -125.2765,0 -145.8576,4.61975 -20.5812,4.61975 -79.6402,-3.0798 -85.904,-62.36645 z"
       id="path5034"
       inkscape:connector-curvature="0" />
    <path
       style="color:#000000;display:inline;overflow:visible;visibility:visible;fill:#ffffff;fill-opacity:1;fill-rule:nonzero;stroke:none;stroke-width:1px;marker:none;enable-background:accumulate"
       d="m 1993.1012,433.95053 c -57.0243,-41.23372 -60.4397,-86.77108 -49.5441,-144.9504 10.8956,-58.17932 39.6811,-24.31559 39.6811,-24.31559 0,0 -65.1914,100.00192 9.863,169.26599 z"
       id="path5002"
       inkscape:connector-curvature="0"
       sodipodi:nodetypes="cscc" />
    <path
       style="color:#000000;display:inline;overflow:visible;visibility:visible;fill:#ffffff;fill-opacity:1;fill-rule:nonzero;stroke:none;stroke-width:0.77728993px;marker:none;enable-background:accumulate"
       d="m 1686.2913,2273.8447 c 1.9548,12.6252 -20.2332,66.0408 -111.3756,61.8839 -91.1424,-4.157 -112.9427,-36.8339 -112.8192,-53.7968 0.1234,-16.963 21.4964,-44.2602 34.7426,-49.1276 13.2461,-4.8673 52.126,-15.6749 87.6192,-10.6767 39.5028,5.5627 74.284,12.3263 88.2445,26.9259 13.9604,14.5994 11.9752,21.4764 13.5885,24.7913 z"
       id="path3365"
       inkscape:connector-curvature="0"
       sodipodi:nodetypes="ccccscc" />
    <path
       style="color:#000000;display:inline;overflow:visible;visibility:visible;fill:#ffffff;fill-opacity:1;fill-rule:nonzero;stroke:none;stroke-width:1.50715446px;marker:none;enable-background:accumulate"
       d="m 1504.4279,2356.4194 c 28.1374,-54.0239 182.3939,-54.2266 229.8001,-30.2646 47.406,23.9617 54.2605,53.2859 56.0822,67.676 1.8216,14.3899 -5.6924,98.4799 -30.671,111.3134 -24.9786,12.8332 -95.6169,18.7072 -120.2183,18.4776 -24.6016,-0.2295 -102.8951,-9.2769 -122.216,-28.5797 -18.4825,-18.4655 -40.9145,-84.5989 -12.777,-138.6227 z"
       id="path3330"
       inkscape:connector-curvature="0"
       sodipodi:nodetypes="zsssssz" />
    <path
       style="color:#000000;display:inline;overflow:visible;visibility:visible;fill:#ffffff;fill-opacity:1;fill-rule:nonzero;stroke:none;stroke-width:1.07720649px;marker:none;enable-background:accumulate"
       d="m 1658.3491,2413.5389 c -69.9893,51.1328 8.9085,162.5856 132.4832,191.8362 -158.9941,-19.5502 -214.8639,-129.8242 -184.2863,-182.6082 -12.1609,-26.4834 51.8031,-9.228 51.8031,-9.228 z"
       id="path4008"
       inkscape:connector-curvature="0"
       sodipodi:nodetypes="cccc" />
    <path
       style="color:#000000;display:inline;overflow:visible;visibility:visible;fill:#ffffff;fill-opacity:1;fill-rule:nonzero;stroke:none;stroke-width:0.92337912px;marker:none;enable-background:accumulate"
       d="M 86.001942,69.839589 C 109.14897,44.819976 314.4635,57.851953 363.68737,125.92711 412.91112,194.00223 362.5844,286.4242 326.72354,303.1038 290.86281,319.78343 155.1945,330.08958 111.05312,309.42951 52.500593,282.02438 39.608994,238.1613 45.353326,179.35037 47.697811,155.34755 62.854773,94.859486 86.001942,69.839589 Z"
       id="path4040-0"
       inkscape:connector-curvature="0"
       sodipodi:nodetypes="zssssz" />
    <path
       style="color:#000000;display:inline;overflow:visible;visibility:visible;fill:#ffffff;fill-opacity:1;fill-rule:nonzero;stroke:none;stroke-width:1.31624353px;marker:none;enable-background:accumulate"
       d="m 327.56564,468.55748 c 2.83938,22.56052 -19.04325,120.08167 -120.68956,118.8051 -101.6463,-1.27676 -127.625286,-58.53066 -128.379966,-89.02936 -0.7548,-30.49886 21.594486,-81.01756 36.079496,-90.66695 14.48492,-9.64922 57.18397,-31.71839 96.94539,-25.1469 44.25318,7.31362 83.31511,17.10676 99.61887,42.40015 16.30362,25.29305 14.45606,37.78918 16.42577,43.63796 z"
       id="path3365-6"
       inkscape:connector-curvature="0"
       sodipodi:nodetypes="ccccscc" />
    <path
       style="color:#000000;display:inline;overflow:visible;visibility:visible;fill:#ffffff;fill-opacity:1;fill-rule:nonzero;stroke:none;stroke-width:1.17923069px;marker:none;enable-background:accumulate"
       d="m 421.00062,1204.9587 c -82.04637,41.839 -98.69807,91.9551 -101.02486,156.986 -2.32681,65.0308 42.64616,29.4851 42.64616,29.4851 0,0 -53.69551,-114.8291 58.3787,-186.4711 z"
       id="path5002-1"
       inkscape:connector-curvature="0"
       sodipodi:nodetypes="cscc" />
  </g>
  <g
     inkscape:groupmode="layer"
     id="layer1"
     inkscape:label="txt">
    <text
       xml:space="preserve"
       style="font-style:italic;font-variant:normal;font-weight:normal;font-stretch:normal;line-height:0%;font-family:'Rounded M+ 1c';-inkscape-font-specification:'Rounded M+ 1c Italic';text-align:center;letter-spacing:0px;word-spacing:0px;text-anchor:middle;fill:#000000;fill-opacity:1;stroke:none"
       x="120.3148"
       y="1365.2563"
       id="text4246-5-5"><tspan
         sodipodi:role="line"
         style="font-style:italic;font-variant:normal;font-weight:normal;font-stretch:normal;font-size:45px;line-height:1.25;font-family:'Rounded M+ 1c';-inkscape-font-specification:'Rounded M+ 1c Italic';text-align:start;text-anchor:start"
         x="120.3148"
         y="1365.2563"
         id="tspan836">「近道を</tspan><tspan
         sodipodi:role="line"
         style="font-style:italic;font-variant:normal;font-weight:normal;font-stretch:normal;font-size:45px;line-height:1.25;font-family:'Rounded M+ 1c';-inkscape-font-specification:'Rounded M+ 1c Italic';text-align:start;text-anchor:start"
         x="120.3148"
         y="1421.5063"
         id="tspan89">通ったので</tspan><tspan
         sodipodi:role="line"
         style="font-style:italic;font-variant:normal;font-weight:normal;font-stretch:normal;font-size:45px;line-height:1.25;font-family:'Rounded M+ 1c';-inkscape-font-specification:'Rounded M+ 1c Italic';text-align:start;text-anchor:start"
         x="120.3148"
         y="1477.7563"
         id="tspan91">守護者の部屋は</tspan><tspan
         sodipodi:role="line"
         style="font-style:italic;font-variant:normal;font-weight:normal;font-stretch:normal;font-size:45px;line-height:1.25;font-family:'Rounded M+ 1c';-inkscape-font-specification:'Rounded M+ 1c Italic';text-align:start;text-anchor:start"
         x="120.3148"
         y="1534.0063"
         id="tspan93">もうすぐの</tspan><tspan
         sodipodi:role="line"
         style="font-style:italic;font-variant:normal;font-weight:normal;font-stretch:normal;font-size:45px;line-height:1.25;font-family:'Rounded M+ 1c';-inkscape-font-specification:'Rounded M+ 1c Italic';text-align:start;text-anchor:start"
         x="120.3148"
         y="1590.2563"
         id="tspan478">はずだ」</tspan></text>
    <text
       xml:space="preserve"
       style="font-style:normal;font-variant:normal;font-weight:normal;font-stretch:normal;line-height:0%;font-family:'Rounded M+ 1c';-inkscape-font-specification:'Rounded M+ 1c, Medium';text-align:center;letter-spacing:0px;word-spacing:0px;text-anchor:middle;fill:#000000;fill-opacity:1;stroke:none"
       x="850.85791"
       y="999.70166"
       id="text4246-5"><tspan
         sodipodi:role="line"
         style="font-size:45px;line-height:1.25"
         x="850.85791"
         y="999.70166"
         id="tspan859">ふぅん...</tspan></text>
    <text
       xml:space="preserve"
       style="font-style:normal;font-variant:normal;font-weight:normal;font-stretch:normal;line-height:0%;font-family:'Rounded M+ 1c';-inkscape-font-specification:'Rounded M+ 1c, Medium';text-align:center;letter-spacing:0px;word-spacing:0px;text-anchor:middle;fill:#000000;fill-opacity:1;stroke:none"
       x="902.0603"
       y="1036.5649"
       id="text4246-5-3"><tspan
         sodipodi:role="line"
         style="font-size:45px;line-height:1.25"
         x="902.0603"
         y="1040.8849"
         id="tspan890" /><tspan
         sodipodi:role="line"
         style="font-size:45px;line-height:1.25"
         x="902.0603"
         y="1080.8899"
         id="tspan482">ボス敵</tspan><tspan
         sodipodi:role="line"
         style="font-size:45px;line-height:1.25"
         x="902.0603"
         y="1137.1399"
         id="tspan105">?!?</tspan><tspan
         sodipodi:role="line"
         style="font-size:45px;line-height:1.25"
         x="902.0603"
         y="1153.3849"
         id="tspan917" /></text>
    <text
       xml:space="preserve"
       style="font-style:normal;font-variant:normal;font-weight:normal;font-stretch:normal;line-height:0%;font-family:'Rounded M+ 1c';-inkscape-font-specification:'Rounded M+ 1c, Medium';text-align:center;letter-spacing:0px;word-spacing:0px;text-anchor:middle;fill:#000000;fill-opacity:1;stroke:none"
       x="1656.1846"
       y="1099.2588"
       id="text4246-5-3-7"><tspan
         sodipodi:role="line"
         style="font-size:45px;line-height:1.25"
         x="1656.1846"
         y="1103.5787"
         id="tspan890-5" /><tspan
         sodipodi:role="line"
         style="font-size:45px;line-height:1.25"
         x="1656.1846"
         y="1143.5837"
         id="tspan919-5">でも</tspan><tspan
         sodipodi:role="line"
         style="font-size:45px;line-height:1.25"
         x="1656.1846"
         y="1199.8337"
         id="tspan917-6">どこ？</tspan></text>
    <text
       xml:space="preserve"
       style="font-style:normal;font-variant:normal;font-weight:normal;font-stretch:normal;line-height:0%;font-family:'Rounded M+ 1c';-inkscape-font-specification:'Rounded M+ 1c, Medium';text-align:center;letter-spacing:0px;word-spacing:0px;text-anchor:middle;fill:#000000;fill-opacity:1;stroke:none"
       x="2031.5693"
       y="160.21571"
       id="text4246-5-3-7-2"><tspan
         sodipodi:role="line"
         style="font-size:45px;line-height:1.25"
         x="2031.5693"
         y="164.53572"
         id="tspan890-5-9" /><tspan
         sodipodi:role="line"
         style="font-size:45px;line-height:1.25"
         x="2031.5693"
         y="204.54071"
         id="tspan950-2">あ...</tspan><tspan
         sodipodi:role="line"
         style="font-size:45px;line-height:1.25"
         x="2031.5693"
         y="220.78572"
         id="tspan917-6-7" /></text>
    <text
       xml:space="preserve"
       style="font-style:normal;font-variant:normal;font-weight:bold;font-stretch:normal;line-height:0%;font-family:'Rounded M+ 1c';-inkscape-font-specification:'Rounded M+ 1c Bold';text-align:center;letter-spacing:0px;word-spacing:0px;text-anchor:middle;fill:#000000;fill-opacity:1;stroke:none"
       x="2052.343"
       y="244.80626"
       id="text4246-5-3-7-2-0"><tspan
         sodipodi:role="line"
         style="font-style:normal;font-variant:normal;font-weight:bold;font-stretch:normal;font-size:53.33333206px;line-height:1.25;font-family:'Rounded M+ 1c';-inkscape-font-specification:'Rounded M+ 1c Bold'"
         x="2052.343"
         y="249.12627"
         id="tspan950-2-3" /><tspan
         sodipodi:role="line"
         style="font-style:normal;font-variant:normal;font-weight:bold;font-stretch:normal;font-size:53.33333206px;line-height:1.25;font-family:'Rounded M+ 1c';-inkscape-font-specification:'Rounded M+ 1c Bold'"
         x="2052.343"
         y="297.3396"
         id="tspan117">見つけた!</tspan><tspan
         sodipodi:role="line"
         style="font-style:normal;font-variant:normal;font-weight:bold;font-stretch:normal;font-size:53.33333206px;line-height:1.25;font-family:'Rounded M+ 1c';-inkscape-font-specification:'Rounded M+ 1c Bold'"
         x="2052.343"
         y="315.79294"
         id="tspan917-6-7-6" /></text>
    <text
       xml:space="preserve"
       style="font-style:italic;font-variant:normal;font-weight:normal;font-stretch:normal;line-height:0%;font-family:'Rounded M+ 1c';-inkscape-font-specification:'Rounded M+ 1c Italic';text-align:center;letter-spacing:0px;word-spacing:0px;text-anchor:middle;fill:#000000;fill-opacity:1;stroke:none"
       x="1570.0227"
       y="2245.6042"
       id="text4246-5-3-7-6"><tspan
         sodipodi:role="line"
         style="font-style:italic;font-variant:normal;font-weight:normal;font-stretch:normal;font-size:45px;line-height:1.25;font-family:'Rounded M+ 1c';-inkscape-font-specification:'Rounded M+ 1c Italic'"
         x="1570.0227"
         y="2249.9243"
         id="tspan890-5-2" /><tspan
         sodipodi:role="line"
         style="font-style:italic;font-variant:normal;font-weight:normal;font-stretch:normal;font-size:45px;line-height:1.25;font-family:'Rounded M+ 1c';-inkscape-font-specification:'Rounded M+ 1c Italic'"
         x="1570.0227"
         y="2289.9292"
         id="tspan917-6-8">ふぅ...!</tspan></text>
    <text
       xml:space="preserve"
       style="font-style:normal;font-variant:normal;font-weight:normal;font-stretch:normal;line-height:0%;font-family:'Rounded M+ 1c';-inkscape-font-specification:'Rounded M+ 1c, Medium';text-align:center;letter-spacing:0px;word-spacing:0px;text-anchor:middle;fill:#000000;fill-opacity:1;stroke:none"
       x="1643.5723"
       y="2333.4468"
       id="text4246-5-3-79"><tspan
         sodipodi:role="line"
         style="font-size:45px;line-height:1.25"
         x="1643.5723"
         y="2337.7668"
         id="tspan890-2" /><tspan
         sodipodi:role="line"
         style="font-size:45px;line-height:1.25"
         x="1643.5723"
         y="2377.7717"
         id="tspan119">弱点を</tspan><tspan
         sodipodi:role="line"
         style="font-size:45px;line-height:1.25"
         x="1643.5723"
         y="2434.0217"
         id="tspan123">知ってれば</tspan><tspan
         sodipodi:role="line"
         style="font-size:45px;line-height:1.25"
         x="1643.5723"
         y="2490.2717"
         id="tspan125">簡単!</tspan><tspan
         sodipodi:role="line"
         style="font-size:45px;line-height:1.25"
         x="1643.5723"
         y="2506.5168"
         id="tspan917-3" /></text>
    <text
       xml:space="preserve"
       style="font-style:italic;font-variant:normal;font-weight:normal;font-stretch:normal;line-height:0%;font-family:'Rounded M+ 1c';-inkscape-font-specification:'Rounded M+ 1c Italic';text-align:center;letter-spacing:0px;word-spacing:0px;text-anchor:middle;fill:#000000;fill-opacity:1;stroke:none"
       x="124.21524"
       y="161.71936"
       id="text4246-5-5-3"><tspan
         sodipodi:role="line"
         style="font-style:italic;font-variant:normal;font-weight:normal;font-stretch:normal;font-size:45px;line-height:1.25;font-family:'Rounded M+ 1c';-inkscape-font-specification:'Rounded M+ 1c Italic';text-align:start;text-anchor:start"
         x="124.21524"
         y="161.71936"
         id="tspan940">「途中で</tspan><tspan
         sodipodi:role="line"
         style="font-style:italic;font-variant:normal;font-weight:normal;font-stretch:normal;font-size:45px;line-height:1.25;font-family:'Rounded M+ 1c';-inkscape-font-specification:'Rounded M+ 1c Italic';text-align:start;text-anchor:start"
         x="124.21524"
         y="217.96936"
         id="tspan73">羽根を</tspan><tspan
         sodipodi:role="line"
         style="font-style:italic;font-variant:normal;font-weight:normal;font-stretch:normal;font-size:45px;line-height:1.25;font-family:'Rounded M+ 1c';-inkscape-font-specification:'Rounded M+ 1c Italic';text-align:start;text-anchor:start"
         x="124.21524"
         y="274.21936"
         id="tspan75">拾うこと」</tspan></text>
    <text
       xml:space="preserve"
       style="font-style:normal;font-variant:normal;font-weight:normal;font-stretch:normal;font-size:11.12393284px;line-height:0%;font-family:'Rounded M+ 1c';-inkscape-font-specification:'Rounded M+ 1c, Medium';text-align:center;letter-spacing:0px;word-spacing:0px;text-anchor:middle;fill:#000000;fill-opacity:1;stroke:none;stroke-width:0.92699438"
       x="202.47894"
       y="450.48187"
       id="text4246-5-3-9"><tspan
         sodipodi:role="line"
         style="font-size:41.71474838px;line-height:1.25;stroke-width:0.92699438"
         x="202.47894"
         y="450.48187"
         id="tspan995">羽根は</tspan><tspan
         sodipodi:role="line"
         style="font-size:41.71474838px;line-height:1.25;stroke-width:0.92699438"
         x="202.47894"
         y="502.62531"
         id="tspan81">いっぱい</tspan><tspan
         sodipodi:role="line"
         style="font-size:41.71474838px;line-height:1.25;stroke-width:0.92699438"
         x="202.47894"
         y="554.76874"
         id="tspan83">ある!</tspan></text>
    <text
       xml:space="preserve"
       style="font-style:italic;font-variant:normal;font-weight:normal;font-stretch:normal;font-size:9.62365437px;line-height:0%;font-family:'Rounded M+ 1c';-inkscape-font-specification:'Rounded M+ 1c Italic';text-align:center;letter-spacing:0px;word-spacing:0px;text-anchor:middle;fill:#000000;fill-opacity:1;stroke:none;stroke-width:0.80197126"
       x="13.33729"
       y="2107.6648"
       id="text4246-5-5-8"
       transform="matrix(0.90354167,-0.46833278,0.47503417,0.86053134,0,0)"><tspan
         sodipodi:role="line"
         style="font-style:italic;font-variant:normal;font-weight:normal;font-stretch:normal;font-size:36.08870697px;line-height:1.25;font-family:'Rounded M+ 1c';-inkscape-font-specification:'Rounded M+ 1c Italic';text-align:start;text-anchor:start;fill:#ffffff;fill-opacity:1;stroke-width:0.80197126"
         x="13.33729"
         y="2107.6648"
         id="tspan478-2">こちょ</tspan></text>
    <text
       xml:space="preserve"
       style="font-style:italic;font-variant:normal;font-weight:normal;font-stretch:normal;font-size:9.62365437px;line-height:0%;font-family:'Rounded M+ 1c';-inkscape-font-specification:'Rounded M+ 1c Italic';text-align:center;letter-spacing:0px;word-spacing:0px;text-anchor:middle;fill:#000000;fill-opacity:1;stroke:none;stroke-width:0.80197126"
       x="50.222191"
       y="2071.1909"
       id="text4246-5-5-8-3"
       transform="matrix(0.90354167,-0.46833278,0.47503417,0.86053134,0,0)"
       inkscape:transform-center-x="-64.107832"
       inkscape:transform-center-y="11.506534"><tspan
         sodipodi:role="line"
         style="font-style:italic;font-variant:normal;font-weight:normal;font-stretch:normal;font-size:36.08870697px;line-height:1.25;font-family:'Rounded M+ 1c';-inkscape-font-specification:'Rounded M+ 1c Italic';text-align:start;text-anchor:start;fill:#ffffff;fill-opacity:1;stroke-width:0.80197126"
         x="50.222191"
         y="2071.1909"
         id="tspan478-2-7">こちょ</tspan></text>
  </g>
</svg>
