<?xml version="1.0" encoding="UTF-8" standalone="no"?>
<!-- Created with Inkscape (http://www.inkscape.org/) -->

<svg
   xmlns:dc="http://purl.org/dc/elements/1.1/"
   xmlns:cc="http://creativecommons.org/ns#"
   xmlns:rdf="http://www.w3.org/1999/02/22-rdf-syntax-ns#"
   xmlns:svg="http://www.w3.org/2000/svg"
   xmlns="http://www.w3.org/2000/svg"
   xmlns:xlink="http://www.w3.org/1999/xlink"
   xmlns:sodipodi="http://sodipodi.sourceforge.net/DTD/sodipodi-0.dtd"
   xmlns:inkscape="http://www.inkscape.org/namespaces/inkscape"
   id="svg2"
   version="1.1"
   inkscape:version="0.48.5 r10040"
   width="2481"
   height="3503"
   sodipodi:docname="E24P03.svg"
   inkscape:export-filename="/home/calimero/peppercarrot/webcomics/ep24_The-Unity-Tree/lang/en/E24P03.svg.png"
   inkscape:export-xdpi="45"
   inkscape:export-ydpi="45">
  <metadata
     id="metadata8">
    <rdf:RDF>
      <cc:Work
         rdf:about="">
        <dc:format>image/svg+xml</dc:format>
        <dc:type
           rdf:resource="http://purl.org/dc/dcmitype/StillImage" />
        <dc:title />
      </cc:Work>
    </rdf:RDF>
  </metadata>
  <defs
     id="defs6">
    <filter
       style="color-interpolation-filters:sRGB"
       id="filter4375-4-1-1-1-9-5-8"
       inkscape:label="Drop Shadow">
      <feFlood
         id="feFlood4377-7-9-0-8-1-7-3"
         flood-opacity="1"
         flood-color="rgb(200,55,55)"
         result="flood" />
      <feComposite
         id="feComposite4379-3-8-8-2-77-4-1"
         in2="SourceGraphic"
         in="flood"
         operator="in"
         result="composite1" />
      <feMorphology
         id="feMorphology4393-1-0-49-8-9-3-0"
         operator="dilate"
         radius="6.2000000000000002"
         result="result3" />
      <feComposite
         id="feComposite4385-9-5-7-0-8-8-7"
         in2="result3"
         in="SourceGraphic"
         operator="over"
         result="fbSourceGraphic" />
      <feColorMatrix
         result="fbSourceGraphicAlpha"
         in="fbSourceGraphic"
         values="0 0 0 -1 0 0 0 0 -1 0 0 0 0 -1 0 0 0 0 1 0"
         id="feColorMatrix4544" />
      <feTurbulence
         id="feTurbulence4546"
         type="fractalNoise"
         numOctaves="3"
         seed="37"
         baseFrequency="0.129 0.0050000000000000001"
         result="turbulence" />
      <feDisplacementMap
         id="feDisplacementMap4548"
         in2="turbulence"
         in="fbSourceGraphic"
         scale="6.6"
         yChannelSelector="G"
         xChannelSelector="R"
         result="fbSourceGraphic" />
      <feColorMatrix
         result="fbSourceGraphicAlpha"
         in="fbSourceGraphic"
         values="0 0 0 -1 0 0 0 0 -1 0 0 0 0 -1 0 0 0 0 1 0"
         id="feColorMatrix4670" />
      <feFlood
         id="feFlood4672"
         flood-opacity="1"
         flood-color="rgb(80,22,22)"
         result="flood"
         in="fbSourceGraphic" />
      <feComposite
         id="feComposite4674"
         in2="fbSourceGraphic"
         in="flood"
         operator="in"
         result="composite1" />
      <feGaussianBlur
         id="feGaussianBlur4676"
         in="composite1"
         stdDeviation="0"
         result="blur" />
      <feOffset
         id="feOffset4678"
         dx="6"
         dy="6"
         result="offset" />
      <feComposite
         id="feComposite4680"
         in2="offset"
         in="fbSourceGraphic"
         operator="over"
         result="composite2" />
    </filter>
    <filter
       inkscape:collect="always"
       style="color-interpolation-filters:sRGB"
       id="filter4210"
       x="-0.0015578248"
       width="1.0031157"
       y="-0.0045528179"
       height="1.0091056">
      <feGaussianBlur
         inkscape:collect="always"
         stdDeviation="0.2079876"
         id="feGaussianBlur4212" />
    </filter>
  </defs>
  <sodipodi:namedview
     pagecolor="#ffffff"
     bordercolor="#666666"
     borderopacity="1"
     objecttolerance="10"
     gridtolerance="10"
     guidetolerance="10"
     inkscape:pageopacity="0"
     inkscape:pageshadow="2"
     inkscape:window-width="1292"
     inkscape:window-height="745"
     id="namedview4"
     showgrid="false"
     inkscape:zoom="0.41053452"
     inkscape:cx="1546.7971"
     inkscape:cy="89.224322"
     inkscape:window-x="66"
     inkscape:window-y="-8"
     inkscape:window-maximized="1"
     inkscape:current-layer="layer1"
     inkscape:snap-global="false" />
  <g
     inkscape:groupmode="layer"
     id="layer2"
     inkscape:label="artwork"
     sodipodi:insensitive="true">
    <image
       sodipodi:absref="C:\Users\Gwen\Documents\Academie_du_Gallo\Traduction_BD\peppercarrot_ep24_The-Unity-Tree_lang-pack\lang\go\../gfx_Pepper-and-Carrot_by-David-Revoy_E24P03.png"
       xlink:href="../gfx_Pepper-and-Carrot_by-David-Revoy_E24P03.png"
       y="0"
       x="0"
       id="image10"
       height="3503"
       width="2481" />
  </g>
  <g
     inkscape:groupmode="layer"
     id="layer3"
     inkscape:label="speechbubbles"
     style="display:inline">
    <path
       style="color:#000000;fill:#ffffff;fill-opacity:1;fill-rule:nonzero;stroke:none;stroke-width:1.06706357px;marker:none;visibility:visible;display:inline;overflow:visible;enable-background:accumulate"
       d="m 542.88256,1309.6047 c 0.41603,26.9695 -27.22987,49.9627 -158.03833,52.3865 -130.80843,2.424 -157.85846,-33.9688 -158.70023,-49.6476 14.10534,-51.6192 96.61536,-66.0236 146.69543,-65.8672 32.3128,0.6056 123.50105,5.8072 144.37568,18.3345 20.87455,12.5273 27.08553,23.0451 25.66745,44.7938 z"
       id="path3365-0"
       inkscape:connector-curvature="0"
       sodipodi:nodetypes="cccccc" />
    <path
       style="color:#000000;fill:#ffffff;fill-opacity:1;fill-rule:nonzero;stroke:none;stroke-width:1.16029322px;marker:none;visibility:visible;display:inline;overflow:visible;enable-background:accumulate"
       d="m 287.30447,1386.6635 c -2.41774,-10.6066 41.10155,-66.4677 188.58377,-59.3966 147.48221,7.071 176.49513,47.3758 175.28622,61.5179 -1.20892,14.142 -37.47489,36.0622 -59.23467,39.5978 -21.75961,3.5354 -78.57656,12.0206 -114.84275,9.1923 -36.266,-2.8286 -147.48213,-16.9706 -169.24186,-29.6985 -21.75963,-12.7278 -18.133,-18.3846 -20.55071,-21.2129 z"
       id="path3365"
       inkscape:connector-curvature="0" />
    <path
       style="fill:#ffffff;fill-opacity:1;fill-rule:evenodd;stroke:#fff6d5;stroke-width:0.75730425px;stroke-linecap:butt;stroke-linejoin:miter;stroke-opacity:1"
       d="m 1862.439,839.27247 71.0954,-38.57243 135.5776,-1.79407 90.9362,3.58813 145.4976,7.17627 54.5618,19.73473 16.5337,43.95466 -26.4541,46.64571 -77.709,26.91105 -125.6572,1.79398 -155.0403,1.35543 -110.7331,-17.5216 -50.8768,-37.77523 0.8539,-39.35001 z"
       id="path5098"
       inkscape:connector-curvature="0"
       sodipodi:nodetypes="ccccccccccccccc" />
    <path
       style="color:#000000;display:inline;overflow:visible;visibility:visible;fill:#ffffff;fill-opacity:1;fill-rule:nonzero;stroke:none;stroke-width:1px;marker:none;enable-background:accumulate"
       d="m 163.99577,208.35437 c -25.33663,-12.94461 -34.20443,-24.96456 -31.67066,-32.36152 2.53364,-7.39686 25.33651,-45.30612 53.20666,-49.92921 27.87026,-4.62308 100.07938,-10.17074 116.54822,-5.54765 16.46884,4.623 63.34145,35.13539 63.34145,50.85377 0,15.71848 -8.8678,46.23078 -34.20442,55.47687 -25.33651,9.24616 -136.81747,14.7939 -167.22125,-18.49226 z"
       id="path3349"
       inkscape:connector-curvature="0" />
    <path
       style="fill:#ffffff;fill-rule:evenodd;stroke:none"
       d="m 97.3648,299.93804 c 10.33996,-31.55279 38.18446,-55.49279 68.48887,-71.47423 14.42169,-7.71564 30.90597,-13.36984 47.77425,-11.88258 16.75768,0.88867 33.1258,6.19432 50.06885,4.35147 20.60226,-0.6087 41.56624,-3.2643 61.93195,0.53032 18.10436,4.14048 36.75704,6.28489 55.43952,6.40923 13.17989,-2.62813 25.24035,4.37667 37.01079,8.56633 10.56687,4.52559 21.35999,9.27365 30.23554,16.27402 8.17704,9.82698 17.96797,18.37628 26.24049,28.11581 5.41294,5.32452 4.89285,12.67911 4.64348,19.48565 -0.70301,13.93837 -1.89352,28.09671 -6.31231,41.52509 -2.64431,8.52522 -12.41814,11.34659 -19.92818,15.2641 -17.76989,8.26983 -36.63921,1.67466 -53.59837,11.40654 -16.80164,4.9831 -34.65713,2.6523 -51.88801,1.89922 -14.4383,-1.48333 -28.96247,-3.55183 -43.52483,-1.82683 -18.53448,1.26232 -37.01267,4.53087 -55.61341,4.1122 -23.30164,-2.87289 -45.61831,-9.94669 -68.19959,-15.62112 -20.25947,-5.00149 -38.72433,-1.53989 -56.44184,-11.6007 -9.46401,-5.71316 -19.48281,-12.35382 -22.82282,-22.88246 -2.73797,-7.24989 -3.383128,-15.01274 -3.50438,-22.65206 z"
       id="path4365"
       inkscape:connector-curvature="0"
       sodipodi:nodetypes="cccccccccccccccccccc" />
    <path
       style="fill:#ffffff;stroke:none;stroke-width:1"
       d="m 255.74611,486.59733 c -23.27266,-23.83534 -20.48879,-35.75842 -16.41183,-49.14873 4.07679,-13.39047 8.97204,-25.16536 5.766,-32.83447 -3.20588,-7.66895 -10.93987,-14.22751 -17.30992,-18.09351 -6.37002,-3.86612 0.37438,-12.96194 1.66184,-22.47971 1.28739,-9.51792 -6.96124,-58.99857 -6.96124,-58.99857 0,0 -18.46628,33.89095 -21.4884,46.01372 -3.02229,12.1226 -4.17691,16.54274 -4.30975,21.64038 -0.13267,5.09782 1.0675,17.51673 6.55388,23.65787 5.48637,6.14113 13.38767,8.34016 18.4974,11.72826 5.10986,3.388 3.10789,14.22244 1.75318,24.94735 -1.3548,10.72489 -0.91888,18.61083 7.73931,32.21546 7.42161,11.66179 24.50953,21.35195 24.50953,21.35195 z"
       id="path3023-2"
       inkscape:connector-curvature="0"
       sodipodi:nodetypes="csssscssssssc" />
    <text
       xml:space="preserve"
       style="font-style:normal;font-variant:normal;font-weight:normal;font-stretch:normal;font-size:10.6579771px;line-height:0.01%;font-family:Arial;-inkscape-font-specification:Arial;letter-spacing:0px;word-spacing:0px;fill:#b8764f;fill-opacity:1;stroke:none;stroke-width:0.99999994"
       x="146.31161"
       y="792.88184"
       id="text969"
       transform="matrix(0.93043638,-0.40475701,0,1.0747645,0,0)"><tspan
         sodipodi:role="line"
         x="146.31161"
         y="792.88184"
         id="tspan967"
         style="fill:#b8764f;fill-opacity:1;stroke-width:0.99999994"><tspan
           x="146.31161"
           y="792.88184"
           style="font-style:normal;font-variant:normal;font-weight:normal;font-stretch:normal;font-size:42.63190842px;line-height:1.25;font-family:Lavi;-inkscape-font-specification:Lavi;fill:#b8764f;fill-opacity:1;stroke-width:0.99999994"
           id="tspan965">Shrr</tspan></tspan></text>
    <path
       style="fill:#ffffff;fill-rule:evenodd;stroke:none;stroke-width:1px;stroke-linecap:butt;stroke-linejoin:miter;stroke-opacity:1"
       d="m 370.97128,1548.8957 c 34.54669,1.1959 83.59442,-18.7033 52.12277,-69.4699 56.47337,33.678 100.13838,24.2103 183.52271,-40.2063 -1.47311,82.0628 37.11457,71.8179 71.27691,53.7914 -31.90286,29.7205 29.98768,41.3762 62.7871,40.7264 -64.92897,64.01 -27.27335,80.4581 1.56546,100.994 -69.13686,-11.9888 -50.31605,20.4329 -57.08491,39.934 -61.35447,-39.0429 -103.02682,-26.0066 -133.68078,16.1838 -19.06347,-20.5486 -27.75576,-65.0776 -87.42715,8.2687 19.50997,-61.1734 -11.17322,-52.8327 -59.48106,-20.0832 6.45489,-20.8238 51.20296,-54.8312 -27.6371,-46.2897 48.01675,-22.6039 56.51496,-49.4327 -5.96395,-83.8492 z"
       id="path4584"
       inkscape:connector-curvature="0"
       sodipodi:nodetypes="cccccccccccc" />
    <path
       style="color:#000000;display:inline;overflow:visible;visibility:visible;fill:#ffffff;fill-opacity:1;fill-rule:nonzero;stroke:none;stroke-width:1px;marker:none;enable-background:accumulate"
       d="m 811.85574,1691.333 c -13.81416,11.4352 -28.07371,23.5268 -45.37048,28.6126 -4.94334,1.3415 -10.13724,2.383 -15.17734,1.997 -5.10914,-1.5938 -7.95117,-6.8567 -8.29553,-12.0924 -1.01963,-7.5052 0.9934,-15.9414 -3.08945,-22.6298 -3.09088,-4.7908 -9.22063,-4.9463 -14.32973,-5.5392 -13.06169,-1.2494 -26.43419,-0.6991 -39.15272,-4.0712 -14.5982,-2.8393 -29.71536,-6.9131 -40.9249,-17.0755 -4.36621,-4.0993 -8.34623,-9.031 -9.60144,-15.1479 -3.92579,-15.5158 0.93662,-33.8932 13.48534,-44.6997 8.61929,-6.1452 22.04985,-4.5663 27.3382,4.6491 2.86475,4.8194 1.99218,10.9537 -0.28824,15.9992 -2.51679,10.0054 0.79504,20.6754 7.64932,27.7427 5.55929,5.9304 12.9599,9.9511 20.86509,11.8157 9.98256,5.4504 21.83723,2.9201 32.79926,2.915 5.00527,0.073 10.31159,0.497 14.65191,3.0035 5.29618,5.1051 4.90278,13.2996 3.78431,20.2236 -0.97364,7.164 -2.89521,15.3934 1.47098,21.6216 2.44167,4.7598 8.43508,2.4997 12.74015,2.4695 13.91862,-1.9388 27.23033,-8.2543 38.53704,-16.9232 1.01948,-0.9054 1.96415,-1.8854 2.90823,-2.8706 z"
       id="path4496"
       inkscape:connector-curvature="0"
       inkscape:transform-center-x="15.738959"
       inkscape:transform-center-y="-33.216744" />
    <text
       xml:space="preserve"
       style="font-style:normal;font-variant:normal;font-weight:normal;font-stretch:normal;font-size:66.33062744px;line-height:0.01%;font-family:Arial;-inkscape-font-specification:Arial;letter-spacing:0.01132977px;word-spacing:0px;display:inline;fill:#ffffff;fill-opacity:1;stroke:#fc5959;stroke-width:3.02600002;stroke-miterlimit:4;stroke-dasharray:none;stroke-opacity:1"
       x="2100.5652"
       y="1099.4115"
       id="text1105"
       transform="matrix(1.0092628,0.17044443,-0.63347357,0.88384115,0,0)"><tspan
         sodipodi:role="line"
         x="2127.418"
         y="1099.4115"
         id="tspan1103"
         style="font-style:normal;font-variant:normal;font-weight:normal;font-stretch:normal;font-family:Lavi;-inkscape-font-specification:Lavi;fill:#ffffff;fill-opacity:1;stroke:#fc5959;stroke-width:3.02600002;stroke-miterlimit:4;stroke-dasharray:none;stroke-opacity:1"><tspan
           x="2127.418"
           y="1099.4115"
           style="font-style:normal;font-variant:normal;font-weight:normal;font-stretch:normal;font-size:54.77391434px;font-family:Lavi;-inkscape-font-specification:Lavi;fill:#ffffff;fill-opacity:1;stroke:#fc5959;stroke-width:3.02600002;stroke-miterlimit:4;stroke-dasharray:none;stroke-opacity:1"
           id="tspan1095">ShiiING</tspan></tspan></text>
    <path
       style="color:#000000;fill:#ffffff;fill-opacity:1;fill-rule:nonzero;stroke:none;stroke-width:1.01920033px;marker:none;visibility:visible;display:inline;overflow:visible;enable-background:accumulate"
       d="m 847.91168,2415.8009 c -63.5831,-6.061 -154.40663,-16.9491 -173.26224,-62.483 -18.85556,-45.5343 11.1206,-119.7741 47.64136,-145.9288 36.52062,-26.1547 97.35941,-34.402 152.5019,-27.2115 55.14254,7.1907 129.476,3.7747 147.2202,46.5203 17.7444,42.7453 43.2688,118.3871 -7.5377,156.3333 -57.89703,43.2423 -166.44542,32.993 -166.56352,32.7697 z"
       id="path3970-1"
       inkscape:connector-curvature="0"
       sodipodi:nodetypes="ccccssc" />
    <path
       style="opacity:1;fill:#ffffff;fill-rule:evenodd;stroke:none;stroke-width:1px;stroke-linecap:butt;stroke-linejoin:miter;stroke-opacity:1"
       d="m 740.99257,2678.9224 c 81.33155,-3.7713 135.73985,-70.9891 126.35903,-170.042 -0.7356,-13.0761 -2.22429,-73.8821 -3.69549,-94.3134 -1.4712,-20.4314 -28.77037,-38.6153 -26.56347,-14.9149 2.2069,23.7004 2.37118,102.019 6.25838,120.7638 11.59073,90.9486 -48.83803,137.4097 -102.35845,158.5065 z"
       id="path4272"
       inkscape:connector-curvature="0"
       sodipodi:nodetypes="ccsscc" />
    <path
       style="fill:#ffffff;fill-opacity:1;stroke:none;stroke-width:0.99999982"
       d="m 1583.6943,2378.2642 c 25.6619,-91.283 31.5783,-124.4528 319.3779,-122.4106 256.7328,1.8218 346.4251,38.5776 332.8618,109.0962 17.0946,41.5314 49.319,125.3755 -102.4008,169.8683 -151.7201,44.4928 -454.975,21.2011 -503.2721,-18.6856 -52.8933,-46.0944 -45.169,-107.1249 -46.5668,-137.8683 z"
       id="path3238"
       inkscape:connector-curvature="0"
       sodipodi:nodetypes="cscccc" />
    <path
       style="fill:#ffffff;stroke:none;stroke-width:1"
       d="m 1667.7291,2850.623 c -28.0273,-50.6036 -13.2215,-93.7285 1.8965,-108.2057 15.1178,-14.4771 50.6778,-42.8284 50.9445,-56.9806 0.2668,-14.1522 -15.4826,-50.9134 -21.5889,-63.5846 -7.7887,-16.1627 79.2563,-67.9419 87.5629,-79.9355 8.3067,-11.9938 19.7346,-62.3727 19.7346,-62.3727 0,0 -50.6027,28.0238 -63.2766,41.8377 -12.6739,13.8139 -6.0044,5.2923 -9.6101,12.305 -3.6058,7.0127 -71.1709,62.8269 -66.9634,77.2471 4.2073,14.4202 23.4056,61.9081 28.8814,72.067 5.4761,10.1588 -29.6375,37.3716 -38.8524,50.9878 -9.2149,13.6163 -19.5808,32.142 -19.0015,56.4166 0.5543,23.2298 30.273,60.2179 30.273,60.2179 z"
       id="path3023"
       inkscape:connector-curvature="0"
       sodipodi:nodetypes="csssscssssssc" />
    <path
       style="fill:#ffffff;fill-rule:evenodd;stroke:none;stroke-width:0.89363021px;stroke-linecap:butt;stroke-linejoin:miter;stroke-opacity:1"
       d="m 1627.9933,162.98999 -52.4846,61.42542 11.7799,88.9427 149.0449,24.57389 303.4128,-12.28694 79.8456,-65.53038 21.2921,-77.8173 -55.8919,-75.76948 -379.463,4.97727 z"
       id="path5054"
       inkscape:connector-curvature="0"
       sodipodi:nodetypes="cccccccccc" />
    <path
       style="color:#000000;display:inline;overflow:visible;visibility:visible;fill:#ffffff;fill-opacity:1;fill-rule:nonzero;stroke:none;stroke-width:1.27950752px;marker:none;enable-background:accumulate"
       d="m 2193.4979,363.18731 c -76.1191,-1.18251 -108.2664,-15.12512 -127.0397,-35.948 -18.7732,-20.82293 -3.1805,-54.44054 29.802,-66.34421 32.9825,-11.90369 77.6066,-13.11006 129.2602,-11.53409 93.3349,2.84768 157.982,11.82167 165.2902,44.11164 7.2563,32.06009 1.4316,49.06959 -67.1769,64.33729 -64.5866,8.78715 -130.1358,5.37737 -130.1358,5.37737 z"
       id="path3970"
       inkscape:connector-curvature="0"
       sodipodi:nodetypes="cccsscc" />
    <path
       style="fill:#ffffff;fill-opacity:1;fill-rule:evenodd;stroke:#fff6d5;stroke-width:1.02790475px;stroke-linecap:butt;stroke-linejoin:miter;stroke-opacity:1"
       d="m 1929.6247,407.81581 -29.3387,90.52387 44.3001,81.23673 215.2743,-4.49613 159.9563,-2.02595 84.1181,-34.83543 -2.2988,-139.6443 -68.461,-44.81577 -162.3587,-9.63565 -151.1917,10.1297 z"
       id="path5075"
       inkscape:connector-curvature="0"
       sodipodi:nodetypes="ccccccccccc" />
    <path
       style="color:#000000;display:inline;overflow:visible;visibility:visible;fill:#ffffff;fill-opacity:1;fill-rule:nonzero;stroke:none;stroke-width:1.23743439px;marker:none;enable-background:accumulate"
       d="m 2172.822,725.14275 c -84.0355,-1.42561 -119.526,-18.2346 -140.2518,-43.33833 -20.7256,-25.10381 -3.5112,-65.63267 32.9014,-79.98355 36.4127,-14.35089 85.6777,-15.80527 142.7031,-13.90531 103.0418,3.43313 174.4121,14.25203 182.4803,53.18031 8.011,38.65111 1.5805,59.15751 -74.1632,77.56401 -71.3036,10.59365 -143.6698,6.48287 -143.6698,6.48287 z"
       id="path3970-36"
       inkscape:connector-curvature="0"
       sodipodi:nodetypes="cccsscc" />
    <path
       style="fill:#ffffff;fill-rule:evenodd;stroke:none;stroke-width:1px;stroke-linecap:butt;stroke-linejoin:miter;stroke-opacity:1"
       d="m 1968.3057,729.12617 c 29.3,2.37711 72.2049,-8.86576 48.5171,-44.65472 45.9784,25.3572 83.676,20.93055 158.4669,-18.88537 -6.2152,55.47661 27.2126,50.29343 57.3483,39.64259 -28.9219,18.66829 22.9941,29.36578 50.9203,30.41443 -59.0751,40.37812 -28.0541,53.21963 -4.7766,68.4278 -58.0567,-11.25186 -44.0155,11.54652 -50.9499,24.43851 -49.804,-29.21 -86.0232,-22.27747 -114.6373,4.88772 -14.9656,-14.7732 -19.6631,-45.30676 -74.8327,1.62921 20.2873,-40.51926 -6.3047,-36.26621 -49.3578,-16.29228 6.7475,-13.8014 46.8499,-34.78842 -20.6983,-32.58474 42.1919,-13.12034 51.0396,-30.8935 0,-57.02315 z"
       id="path4584-1"
       inkscape:connector-curvature="0"
       sodipodi:nodetypes="cccccccccccc" />
    <path
       style="fill:#ffffff;fill-opacity:1;fill-rule:evenodd;stroke:none"
       d="m 2251.9441,943.43238 117.2602,24.62741 19.5433,81.57791 -61.4864,47.7357 -200.1693,7.8164 -260.829,0.021 -69.8299,-32.484 1.5033,-66.186 81.1801,-50.79393 190.9238,-24.62721 z"
       id="path5161"
       inkscape:connector-curvature="0"
       sodipodi:nodetypes="ccccccccccc" />
    <path
       style="color:#000000;display:inline;overflow:visible;visibility:visible;fill:#ffffff;fill-opacity:1;fill-rule:nonzero;stroke:none;stroke-width:1.23743439px;marker:none;enable-background:accumulate"
       d="m 468.12602,1531.336 c -91.4605,-1.394 -130.08678,-17.8307 -152.64382,-42.3783 -22.55683,-24.5477 -3.82143,-64.1787 35.80842,-78.2117 39.62996,-14.033 93.2478,-15.4551 155.3117,-13.5974 112.14612,3.3572 189.82238,13.9364 198.60345,52.0024 8.71882,37.7949 1.72015,57.847 -80.71593,75.8458 -77.60367,10.3589 -156.36382,6.3392 -156.36382,6.3392 z"
       id="path3970-36-4"
       inkscape:connector-curvature="0"
       sodipodi:nodetypes="cccsscc" />
    <path
       style="color:#000000;display:inline;overflow:visible;visibility:visible;fill:#ffffff;fill-opacity:1;fill-rule:nonzero;stroke:none;stroke-width:1px;marker:none;enable-background:accumulate"
       d="m 1683.4942,2261.6019 c -2.8334,-21.4651 7.2442,-37.4127 12.9695,-45.0281 5.7253,-7.6154 44.634,-27.6799 59.4147,-29.3438 14.7807,-1.6638 77.4085,6.9706 89.9108,21.2477 23.9038,34.7711 14.8855,67.8392 -34.6439,87.5507 -9.3767,3.6697 -36.8348,8.5033 -45.9194,8.6547 -9.0846,0.1512 -80.0667,-7.5428 -81.7317,-43.0812 z"
       id="path3357"
       inkscape:connector-curvature="0"
       sodipodi:nodetypes="ccccccc" />
    <text
       xml:space="preserve"
       style="font-style:normal;font-variant:normal;font-weight:normal;font-stretch:normal;line-height:0%;font-family:Lavi;-inkscape-font-specification:Lavi;text-align:center;letter-spacing:0px;word-spacing:0px;text-anchor:middle;display:inline;opacity:0.35800003;fill:#000000;fill-opacity:1;stroke:none;stroke-width:1.45996165;filter:url(#filter4210)"
       x="1174.0292"
       y="1085.962"
       id="text4246-5"
       transform="matrix(0.59859266,-0.06157078,0.00633293,0.63548918,541.82445,2358.5786)"><tspan
         sodipodi:role="line"
         style="font-style:normal;font-variant:normal;font-weight:normal;font-stretch:normal;font-size:45.00812149px;line-height:1.25;font-family:Fondamento;-inkscape-font-specification:Fondamento;stroke:#000000;stroke-width:4.95442009;stroke-miterlimit:4;stroke-dasharray:none;stroke-opacity:1"
         x="1174.0292"
         y="1085.962"
         id="tspan4217">Le KOMONAN</tspan><tspan
         sodipodi:role="line"
         style="font-style:normal;font-variant:normal;font-weight:normal;font-stretch:normal;font-size:45.00812149px;line-height:1.25;font-family:Fondamento;-inkscape-font-specification:Fondamento;stroke:#000000;stroke-width:4.95442009;stroke-miterlimit:4;stroke-dasharray:none;stroke-opacity:1"
         x="1179.5233"
         y="1142.2222"
         id="tspan4207"> </tspan><tspan
         sodipodi:role="line"
         style="font-style:normal;font-variant:normal;font-weight:normal;font-stretch:normal;font-size:45.00812149px;line-height:1.25;font-family:Fondamento;-inkscape-font-specification:Fondamento;stroke:#000000;stroke-width:4.95442009;stroke-miterlimit:4;stroke-dasharray:none;stroke-opacity:1"
         x="1179.5233"
         y="1198.4823"
         id="tspan4209"> </tspan></text>
    <path
       style="color:#000000;display:inline;overflow:visible;visibility:visible;fill:#ffffff;fill-opacity:1;fill-rule:nonzero;stroke:none;stroke-width:1px;marker:none;enable-background:accumulate"
       d="m 1589.7943,157.61754 c -8.8614,-24.36709 -33.8637,-38.6263 -43.4322,-37.17458 -9.5684,1.45169 37.9222,-18.88289 66.1459,18.41098 28.2236,37.29379 -9.2438,35.86676 -9.2438,35.86676 z"
       id="path4035-5"
       inkscape:connector-curvature="0" />
    <path
       style="color:#000000;display:inline;overflow:visible;visibility:visible;fill:#ffffff;fill-opacity:1;fill-rule:nonzero;stroke:none;stroke-width:1px;marker:none;enable-background:accumulate"
       d="m 1316.9724,411.08671 c 59.7698,37.7282 26.9131,115.63535 -8.523,127.33445 38.815,-5.69719 107.6543,-77.73022 42.1661,-140.88089 -140.721,-135.6979 -91.9073,-21.1982 -91.9073,-21.1982 z"
       id="path4035"
       inkscape:connector-curvature="0"
       sodipodi:nodetypes="ccscc" />
    <path
       style="color:#000000;display:inline;overflow:visible;visibility:visible;fill:#ffffff;fill-opacity:1;fill-rule:nonzero;stroke:none;stroke-width:0.99999988px;marker:none;enable-background:accumulate"
       d="m 1112.6921,88.767023 c 83.3367,3.993734 338.767,-7.052232 325.2971,133.072227 -15.2624,158.77144 -49.4678,150.13032 -349.7095,152.37199 -118.84007,0.88728 -357.56386,-1.96877 -365.29951,-84.3017 C 665.94776,31.199009 995.21183,91.874697 1112.6921,88.767023 Z"
       id="path4546-6"
       inkscape:connector-curvature="0"
       sodipodi:nodetypes="csscc" />
    <path
       style="color:#000000;display:inline;overflow:visible;visibility:visible;fill:#ffffff;fill-opacity:1;fill-rule:nonzero;stroke:none;stroke-width:1.23743439px;marker:none;enable-background:accumulate"
       d="m 1603.1577,218.81569 c -72.2705,4.52699 -82.9245,-16.41582 -77.0834,-44.57794 7.3914,-35.63688 40.8892,-42.89308 85.1879,-41.5388 49.1997,0.26824 73.5251,7.0858 79.0271,22.20114 8.6871,23.86573 9.3102,47.69261 -16.5628,58.46055 -32.9494,8.01405 -70.5688,5.45505 -70.5688,5.45505 z"
       id="path3970-6"
       inkscape:connector-curvature="0"
       sodipodi:nodetypes="cscscc" />
    <path
       style="color:#000000;display:inline;overflow:visible;visibility:visible;fill:#ffffff;fill-opacity:1;fill-rule:nonzero;stroke:none;stroke-width:0.99999988px;marker:none;enable-background:accumulate"
       d="m 1107.2047,293.68508 c 75.1699,1.95349 305.5682,-3.4495 293.4183,65.0906 -13.7667,77.66104 -44.6199,73.43435 -315.4382,74.53083 -107.19391,0.43402 -322.52298,-0.96299 -329.5005,-41.2351 -51.44334,-126.54499 245.5531,-96.86625 351.5204,-98.38633 z"
       id="path4546-6-3"
       inkscape:connector-curvature="0"
       sodipodi:nodetypes="csscc" />
  </g>
  <g
     inkscape:groupmode="layer"
     id="layer1"
     inkscape:label="txt"
     style="display:inline">
    <text
       xml:space="preserve"
       style="font-style:normal;font-variant:normal;font-weight:normal;font-stretch:normal;text-align:center;line-height:0%;letter-spacing:0px;word-spacing:0px;text-anchor:middle;fill:#000000;fill-opacity:1;stroke:none;font-family:Lavi;-inkscape-font-specification:Lavi"
       x="243.4854"
       y="186.36362"
       id="text4246"
       sodipodi:linespacing="0%"><tspan
         sodipodi:role="line"
         style="font-size:45px;line-height:1.25"
         x="243.4854"
         y="186.36362"
         id="tspan4252"> Core qe…</tspan></text>
    <text
       xml:space="preserve"
       style="font-style:normal;font-variant:normal;font-weight:normal;font-stretch:normal;text-align:center;line-height:0%;letter-spacing:0px;word-spacing:0px;text-anchor:middle;fill:#000000;fill-opacity:1;stroke:none;font-family:Lavi;-inkscape-font-specification:Lavi"
       x="284.8338"
       y="275.57104"
       id="text4246-3"
       sodipodi:linespacing="0%"><tspan
         sodipodi:role="line"
         style="font-size:45px;line-height:1.25"
         x="292.74396"
         y="275.57104"
         id="tspan3905">Si je me </tspan><tspan
         sodipodi:role="line"
         style="font-size:45px;line-height:1.25"
         x="284.8338"
         y="331.82104"
         id="tspan3909">ravene de façon…</tspan></text>
    <text
       xml:space="preserve"
       style="font-style:normal;font-variant:normal;font-weight:normal;font-stretch:normal;text-align:center;line-height:0%;letter-spacing:0px;word-spacing:0px;text-anchor:middle;fill:#000000;fill-opacity:1;stroke:none;font-family:Lavi;-inkscape-font-specification:Lavi"
       x="1074.6111"
       y="156.58156"
       id="text4246-3-7"
       sodipodi:linespacing="0%"><tspan
         sodipodi:role="line"
         style="font-size:45px;line-height:1.25"
         x="1082.5212"
         y="156.58156"
         id="tspan3925">Sia ! Den le chapitr sus lez </tspan><tspan
         sodipodi:role="line"
         style="font-size:45px;line-height:1.25"
         x="1082.5212"
         y="212.83156"
         id="tspan3929">« Faeynances de Hacheriy », </tspan><tspan
         sodipodi:role="line"
         style="font-size:45px;line-height:1.25"
         x="1082.5212"
         y="269.08154"
         id="tspan3931">Frigoule recomande de lez </tspan><tspan
         sodipodi:role="line"
         style="font-size:45px;line-height:1.25"
         x="1082.5212"
         y="325.33154"
         id="tspan3933">mener den un micro-déport. </tspan><tspan
         sodipodi:role="line"
         style="font-size:45px;line-height:1.25"
         x="1074.6111"
         y="381.58154"
         id="tspan3935">E faot se doner garde :</tspan></text>
    <text
       xml:space="preserve"
       style="font-style:normal;font-variant:normal;font-weight:normal;font-stretch:normal;text-align:center;line-height:0%;letter-spacing:0px;word-spacing:0px;text-anchor:middle;fill:#000000;fill-opacity:1;stroke:none;font-family:Lavi;-inkscape-font-specification:Lavi"
       x="564.24664"
       y="1593.1882"
       id="text4246-3-7-6"
       sodipodi:linespacing="0%"><tspan
         sodipodi:role="line"
         style="font-size:45px;line-height:1.25"
         x="564.24664"
         y="1593.1882"
         id="tspan4386">A l’ouvraije !</tspan></text>
    <text
       xml:space="preserve"
       style="font-style:normal;font-variant:normal;font-weight:normal;font-stretch:normal;text-align:center;line-height:0%;letter-spacing:0px;word-spacing:0px;text-anchor:middle;fill:#000000;fill-opacity:1;stroke:none;font-family:Lavi;-inkscape-font-specification:Lavi"
       x="852.55774"
       y="2254.0481"
       id="text4246-3-7-6-1"
       sodipodi:linespacing="0%"><tspan
         sodipodi:role="line"
         style="font-size:45px;line-height:1.25"
         x="860.4679"
         y="2254.0481"
         id="tspan3976">Ça seraet pas </tspan><tspan
         sodipodi:role="line"
         style="font-size:45px;line-height:1.25"
         x="860.4679"
         y="2310.2981"
         id="tspan3980">le brut d’un </tspan><tspan
         sodipodi:role="line"
         style="font-size:45px;line-height:1.25"
         x="852.55774"
         y="2366.5481"
         id="tspan3982">mico-deport ?</tspan></text>
    <text
       xml:space="preserve"
       style="font-style:normal;font-variant:normal;font-weight:normal;font-stretch:normal;line-height:0%;font-family:Lavi;-inkscape-font-specification:Lavi;letter-spacing:0px;word-spacing:0px;fill:#ffffff;fill-opacity:1;stroke:#c83737;stroke-width:0.99236238;stroke-miterlimit:4;stroke-dasharray:none;stroke-opacity:1;filter:url(#filter4375-4-1-1-1-9-5-8)"
       x="787.65729"
       y="1584.5073"
       id="text4580-6-0"
       transform="matrix(0.83434398,-0.14790328,-0.40858731,0.88612324,1099.912,885.91633)"><tspan
         sodipodi:role="line"
         id="tspan4582-1-1"
         x="787.65729"
         y="1584.5073"
         style="font-size:70px;line-height:1.25;fill:#ffffff;fill-opacity:1;stroke:#c83737;stroke-opacity:1"><tspan
           style="font-size:93.14950562px;fill:#ffffff;fill-opacity:1;stroke:#c83737;stroke-opacity:1"
           id="tspan4315-8">Schplomp !</tspan><tspan
           style="font-size:114.73223114px;fill:#ffffff;fill-opacity:1;stroke:#c83737;stroke-opacity:1"
           id="tspan4313-2">!</tspan></tspan></text>
    <text
       xml:space="preserve"
       style="font-style:normal;font-variant:normal;font-weight:normal;font-stretch:normal;text-align:center;line-height:0%;letter-spacing:0px;word-spacing:0px;text-anchor:middle;fill:#000000;fill-opacity:1;stroke:none;font-family:Lavi;-inkscape-font-specification:Lavi"
       x="1775.6528"
       y="2253.0674"
       id="text4246-3-7-6-1-7"
       sodipodi:linespacing="0%"><tspan
         sodipodi:role="line"
         style="font-size:45px;line-height:1.25"
         x="1775.6528"
         y="2253.0674"
         id="tspan1274">Bon !</tspan></text>
    <text
       xml:space="preserve"
       style="font-style:normal;font-variant:normal;font-weight:normal;font-stretch:normal;text-align:center;line-height:0%;letter-spacing:0px;word-spacing:0px;text-anchor:middle;fill:#483200;fill-opacity:1;stroke:none;font-family:Lavi;-inkscape-font-specification:Lavi"
       x="2315.3464"
       y="244.45766"
       id="text4246-3-7-3"
       transform="matrix(1,0,-0.36397023,1,0,0)"
       sodipodi:linespacing="0%"><tspan
         sodipodi:role="line"
         style="font-size:45px;line-height:1.25;fill:#483200;fill-opacity:1"
         x="2315.3464"
         y="244.45766"
         id="tspan875-6" /><tspan
         sodipodi:role="line"
         style="font-size:45px;line-height:1.25;fill:#080600;fill-opacity:1"
         x="2315.3464"
         y="300.70764"
         id="tspan895-2" /><tspan
         sodipodi:role="line"
         style="font-size:45px;line-height:1.25;fill:#080600;fill-opacity:1"
         x="2315.3464"
         y="356.95764"
         id="tspan4769" /><tspan
         sodipodi:role="line"
         style="font-size:45px;line-height:1.25;fill:#080600;fill-opacity:1"
         x="2323.2566"
         y="413.20764"
         id="tspan1078">« Pour se garantir, </tspan><tspan
         sodipodi:role="line"
         style="font-size:45px;line-height:1.25;fill:#080600;fill-opacity:1"
         x="2323.2566"
         y="469.45764"
         id="tspan3959">NE PAS remmener </tspan><tspan
         sodipodi:role="line"
         style="font-size:45px;line-height:1.25;fill:#080600;fill-opacity:1"
         x="2315.3464"
         y="525.70764"
         id="tspan3961">la fezeùre od vouz.»</tspan></text>
    <text
       xml:space="preserve"
       style="font-style:normal;font-variant:normal;font-weight:normal;font-stretch:normal;text-align:center;line-height:0%;letter-spacing:0px;word-spacing:0px;text-anchor:middle;fill:#000000;fill-opacity:1;stroke:none;font-family:Lavi;-inkscape-font-specification:Lavi"
       x="1947.0856"
       y="15.044073"
       id="text4246-3-7-3-2"
       transform="matrix(1,0,-0.36397023,1,0,0)"
       sodipodi:linespacing="0%"><tspan
         sodipodi:role="line"
         style="font-size:45px;line-height:1.25;fill:#000000;fill-opacity:1"
         x="1947.0856"
         y="15.044073"
         id="tspan875-6-6" /><tspan
         sodipodi:role="line"
         style="font-size:45px;line-height:1.25;fill:#000000;fill-opacity:1"
         x="1947.0856"
         y="71.294075"
         id="tspan895-2-1" /><tspan
         sodipodi:role="line"
         style="font-size:45px;line-height:1.25;fill:#000000;fill-opacity:1"
         x="1947.0856"
         y="127.54408"
         id="tspan4769-8" /><tspan
         sodipodi:role="line"
         style="font-size:45px;line-height:1.25;fill:#000000;fill-opacity:1"
         x="1954.9957"
         y="183.79407"
         id="tspan1010">« NE PAS uzer tout </tspan><tspan
         sodipodi:role="line"
         style="font-size:45px;line-height:1.25;fill:#000000;fill-opacity:1"
         x="1954.9957"
         y="240.04407"
         id="tspan3942">son Réa a oriner </tspan><tspan
         sodipodi:role="line"
         style="font-size:45px;line-height:1.25;fill:#000000;fill-opacity:1"
         x="1947.0856"
         y="296.29407"
         id="tspan3948">le micro-deport. »</tspan></text>
    <text
       xml:space="preserve"
       style="font-style:normal;font-variant:normal;font-weight:normal;font-stretch:normal;text-align:center;line-height:0%;letter-spacing:0px;word-spacing:0px;text-anchor:middle;fill:#483200;fill-opacity:1;stroke:none;font-family:Lavi;-inkscape-font-specification:Lavi"
       x="2430.908"
       y="856.12958"
       id="text4246-3-7-3-7"
       transform="matrix(1,0,-0.36397023,1,0,0)"
       sodipodi:linespacing="0%"><tspan
         sodipodi:role="line"
         style="font-size:45px;line-height:1.25;fill:#000000;fill-opacity:1"
         x="2438.8181"
         y="856.12958"
         id="tspan1122">« Ne pas esperer </tspan><tspan
         sodipodi:role="line"
         style="font-size:45px;line-height:1.25;fill:#000000;fill-opacity:1"
         x="2430.908"
         y="912.37958"
         id="tspan3965">AOQHUN a vouz eïder…</tspan></text>
    <text
       xml:space="preserve"
       style="font-style:normal;font-variant:normal;font-weight:normal;font-stretch:normal;text-align:center;line-height:0%;letter-spacing:0px;word-spacing:0px;text-anchor:middle;fill:#000000;fill-opacity:1;stroke:none;font-family:Lavi;-inkscape-font-specification:Lavi"
       x="2228.116"
       y="320.75421"
       id="text4246-3-7-61"
       sodipodi:linespacing="0%"><tspan
         sodipodi:role="line"
         style="font-size:45px;line-height:1.25"
         x="2228.116"
         y="320.75421"
         id="tspan887-1">Come de just.</tspan></text>
    <text
       xml:space="preserve"
       style="font-style:normal;font-variant:normal;font-weight:normal;font-stretch:normal;text-align:center;line-height:0%;letter-spacing:0px;word-spacing:0px;text-anchor:middle;fill:#000000;fill-opacity:1;stroke:#000000;stroke-width:0.60000002;stroke-miterlimit:4;stroke-opacity:1;stroke-dasharray:none;font-family:Lavi;-inkscape-font-specification:Lavi"
       x="2130.157"
       y="770.14594"
       id="text4246-3-7-61-9"
       sodipodi:linespacing="0%"><tspan
         sodipodi:role="line"
         style="font-size:45px;line-height:1.25;stroke:#000000;stroke-width:0.60000002;stroke-miterlimit:4;stroke-opacity:1;stroke-dasharray:none"
         x="2130.157"
         y="770.14594"
         id="tspan887-1-4">Ah, v'la !</tspan></text>
    <text
       xml:space="preserve"
       style="font-style:normal;font-variant:normal;font-weight:normal;font-stretch:normal;text-align:center;line-height:0%;letter-spacing:0px;word-spacing:0px;text-anchor:middle;fill:#000000;fill-opacity:1;stroke:none;font-family:Lavi;-inkscape-font-specification:Lavi"
       x="2208.1428"
       y="667.86523"
       id="text4246-3-7-61-7"
       sodipodi:linespacing="0%"><tspan
         sodipodi:role="line"
         style="font-size:45px;font-weight:bold;line-height:1.25"
         x="2208.1428"
         y="667.86523"
         id="tspan887-1-8">Pff… C’ét cller !</tspan></text>
    <text
       xml:space="preserve"
       style="font-style:normal;font-variant:normal;font-weight:normal;font-stretch:normal;line-height:0%;font-family:Lavi;-inkscape-font-specification:Lavi;text-align:center;letter-spacing:0px;word-spacing:0px;text-anchor:middle;fill:#000000;fill-opacity:1;stroke:none"
       x="1611.2759"
       y="186.1888"
       id="text4246-3-7-61-4"><tspan
         sodipodi:role="line"
         style="font-size:45px;line-height:1.25"
         x="1611.2759"
         y="186.1888"
         id="tspan887-1-5">Hm…</tspan></text>
    <text
       xml:space="preserve"
       style="font-style:normal;font-variant:normal;font-weight:normal;font-stretch:normal;text-align:center;line-height:0%;letter-spacing:0px;word-spacing:0px;text-anchor:middle;fill:#483200;fill-opacity:1;stroke:#483200;stroke-width:1.29999995;stroke-miterlimit:4;stroke-opacity:1;stroke-dasharray:none;font-family:Lavi;-inkscape-font-specification:Lavi"
       x="2474.6445"
       y="1008.0054"
       id="text4246-3-7-3-7-0"
       transform="matrix(1,0,-0.36397023,1,0,0)"
       sodipodi:linespacing="0%"><tspan
         sodipodi:role="line"
         style="font-size:45px;line-height:1.25;fill:#000000;fill-opacity:1;stroke:#000000;stroke-width:1.29999995;stroke-miterlimit:4;stroke-opacity:1;stroke-dasharray:none"
         x="2482.5547"
         y="1008.0054"
         id="tspan1138">…PAS AOQHUN qi peut </tspan><tspan
         sodipodi:role="line"
         style="font-size:45px;line-height:1.25;fill:#000000;fill-opacity:1;stroke:#000000;stroke-width:1.29999995;stroke-miterlimit:4;stroke-opacity:1;stroke-dasharray:none"
         x="2474.6445"
         y="1064.2554"
         id="tspan3969">vair qhi qe v’éte a faere ! »</tspan></text>
    <text
       xml:space="preserve"
       style="font-style:normal;font-variant:normal;font-weight:normal;font-stretch:normal;text-align:center;line-height:0%;letter-spacing:0px;word-spacing:0px;text-anchor:middle;fill:#000000;fill-opacity:1;stroke:none;font-family:Lavi;-inkscape-font-specification:Lavi"
       x="1912.4795"
       y="2323.0256"
       id="text4246-3-7-6-1-7-6"
       sodipodi:linespacing="0%"><tspan
         sodipodi:role="line"
         style="font-size:45px;line-height:1.25"
         x="1920.3896"
         y="2323.0256"
         id="tspan3993">J’espere qe Pepper a ben </tspan><tspan
         sodipodi:role="line"
         style="font-size:45px;line-height:1.25"
         x="1920.3896"
         y="2379.2756"
         id="tspan3997">comprinz mez recomandes </tspan><tspan
         sodipodi:role="line"
         style="font-size:45px;line-height:1.25"
         x="1920.3896"
         y="2435.5256"
         id="tspan3999">den le chapitr sus lez </tspan><tspan
         sodipodi:role="line"
         style="font-size:45px;line-height:1.25"
         x="1912.4795"
         y="2491.7756"
         id="tspan4001">« Faeynances de Hacheriy »…</tspan></text>
    <text
       xml:space="preserve"
       style="font-style:normal;font-variant:normal;font-weight:normal;font-stretch:normal;text-align:center;line-height:0%;letter-spacing:0px;word-spacing:0px;text-anchor:middle;fill:#000000;fill-opacity:1;stroke:none;font-family:Lavi;-inkscape-font-specification:Lavi"
       x="506.91153"
       y="1427.8452"
       id="text4246-3-7-61-7-7"
       sodipodi:linespacing="0%"><tspan
         sodipodi:role="line"
         style="font-size:45px;line-height:1.25"
         x="506.91153"
         y="1427.8452"
         id="tspan887-1-8-6" /><tspan
         sodipodi:role="line"
         style="font-size:45px;line-height:1.25"
         x="506.91153"
         y="1484.0952"
         id="tspan5199">Bon de memme !</tspan></text>
    <text
       xml:space="preserve"
       style="font-style:normal;font-variant:normal;font-weight:normal;font-stretch:normal;text-align:center;line-height:0%;letter-spacing:0px;word-spacing:0px;text-anchor:middle;fill:#000000;fill-opacity:1;stroke:#000000;stroke-width:0.89999998;stroke-miterlimit:4;stroke-opacity:1;stroke-dasharray:none;font-family:Lavi;-inkscape-font-specification:Lavi"
       x="386.00879"
       y="1317.4152"
       id="text4246-3-7-61-7-7-2"
       sodipodi:linespacing="0%"><tspan
         sodipodi:role="line"
         style="font-size:45px;line-height:1.25;stroke:#000000;stroke-width:0.89999998;stroke-miterlimit:4;stroke-opacity:1;stroke-dasharray:none"
         x="386.00879"
         y="1317.4152"
         id="tspan5199-4">Pas aoqhun ?</tspan></text>
    <text
       xml:space="preserve"
       style="font-style:normal;font-variant:normal;font-weight:normal;font-stretch:normal;text-align:center;line-height:0%;letter-spacing:0px;word-spacing:0px;text-anchor:middle;fill:#000000;fill-opacity:1;stroke:none;font-family:Lavi;-inkscape-font-specification:Lavi"
       x="472.38052"
       y="1397.7435"
       id="text4246-3-7-61-7-7-7"
       sodipodi:linespacing="0%"><tspan
         sodipodi:role="line"
         style="font-size:45px;line-height:1.25"
         x="472.38052"
         y="1397.7435"
         id="tspan5199-43">Pour de vrae !?</tspan></text>
  </g>
</svg>
